<?xml version="1.0" encoding="utf-8"?>
<!-- Generator: Adobe Illustrator 22.0.0, SVG Export Plug-In . SVG Version: 6.00 Build 0)  -->
<svg version="1.1" id="Ñëîé_1" xmlns="http://www.w3.org/2000/svg" xmlns:xlink="http://www.w3.org/1999/xlink" x="0px" y="0px"
	 viewBox="0 0 452.3 477.3" style="enable-background:new 0 0 452.3 477.3;" xml:space="preserve">
<style type="text/css">
	.st0{fill:url(#SVGID_1_);}
	.st1{fill:#B4191E;}
	.st2{fill:url(#SVGID_2_);}
	.st3{fill:url(#SVGID_3_);}
	.st4{fill:url(#SVGID_4_);}
	.st5{fill:url(#SVGID_5_);}
	.st6{fill:url(#SVGID_6_);}
	.st7{fill:url(#SVGID_7_);}
	.st8{fill:url(#SVGID_8_);}
	.st9{fill:url(#SVGID_9_);}
	.st10{fill:url(#SVGID_10_);}
</style>
<g>
	
		<image style="overflow:visible;opacity:0.3;enable-background:new    ;" width="451" height="456" xlink:href="C0AAF299F7E68F50.png"  transform="matrix(1 0 0 1 3.3333 14.3333)">
	</image>
	<g>
		
			<linearGradient id="SVGID_1_" gradientUnits="userSpaceOnUse" x1="227.9528" y1="342.7464" x2="227.9528" y2="132.4265" gradientTransform="matrix(1 0 0 -1 0 480)">
			<stop  offset="0" style="stop-color:#AF9772"/>
			<stop  offset="0.1713" style="stop-color:#AF9976"/>
			<stop  offset="0.7537" style="stop-color:#FFE1B7"/>
			<stop  offset="1" style="stop-color:#FFE1B7"/>
		</linearGradient>
		<path class="st0" d="M431.2,206C421,153.8,392,108.8,349.9,76.6c-34-25.8-78.8-44.6-122-44.6c-43.1,0-88,18.8-121.9,44.7
			C63.9,108.8,34.9,153.8,24.7,206c-9.8,50-4.2,103.7,40.4,135.3c21.3,15.1,49.4,27.8,73.5,38.1c63.5,27.1,74.6,48,89.5,71.2
			c14.7-23.3,26.2-44.2,89.5-71.2c24.1-10.3,52.1-23,73.5-38.1C435.4,309.7,441,256,431.2,206z"/>
	</g>
</g>
<path class="st1" d="M227.9,423.8c-29.3-54.3-112.7-61.4-158.4-93.7c-39.5-28-45.6-76.2-36-125C54.8,97,155.6,38.3,227.9,38.3
	s173.2,58.6,194.4,166.8c9.6,48.8,3.5,97-36,125C340.6,362.5,257.2,369.5,227.9,423.8z"/>
<g>
	<g>
		
			<linearGradient id="SVGID_2_" gradientUnits="userSpaceOnUse" x1="228.6289" y1="338.7966" x2="229.1289" y2="338.7966" gradientTransform="matrix(1 6.159652e-03 6.159652e-03 -1 -2.4898 479.0869)">
			<stop  offset="0" style="stop-color:#AF9772"/>
			<stop  offset="0.1713" style="stop-color:#AF9976"/>
			<stop  offset="0.7537" style="stop-color:#FFE1B7"/>
			<stop  offset="1" style="stop-color:#FFE1B7"/>
		</linearGradient>
		<rect x="228.2" y="140.7" class="st2" width="0.5" height="2"/>
	</g>
	<g>
		
			<linearGradient id="SVGID_3_" gradientUnits="userSpaceOnUse" x1="228.6289" y1="253.3967" x2="229.1289" y2="253.3967" gradientTransform="matrix(1 6.159652e-03 6.159652e-03 -1 -2.4898 479.0869)">
			<stop  offset="0" style="stop-color:#AF9772"/>
			<stop  offset="0.1713" style="stop-color:#AF9976"/>
			<stop  offset="0.7537" style="stop-color:#FFE1B7"/>
			<stop  offset="1" style="stop-color:#FFE1B7"/>
		</linearGradient>
		<path class="st3" d="M227.7,307.6h-0.5v-3.9h0.5V307.6z M227.7,299.7h-0.5v-3.9h0.5V299.7z M227.8,291.9h-0.5V288h0.5V291.9z
			 M227.8,284h-0.5v-3.9h0.5V284z M227.9,276.1h-0.5v-3.9h0.5V276.1z M227.9,268.3h-0.5v-3.9h0.5V268.3z M228,260.4h-0.5v-3.9h0.5
			V260.4z M228,252.6h-0.5v-3.9h0.5V252.6z M228.1,244.7h-0.5v-3.9h0.5V244.7z M228.1,236.9h-0.5V233h0.5V236.9z M228.2,229h-0.5
			v-3.9h0.5V229z M228.2,221.2h-0.5v-3.9h0.5V221.2z M228.3,213.3h-0.5v-3.9h0.5V213.3z M228.3,205.5h-0.5v-3.9h0.5V205.5z
			 M228.4,197.6h-0.5v-3.9h0.5V197.6z M228.4,189.8h-0.5v-3.9h0.5V189.8z M228.5,181.9H228V178h0.5V181.9z M228.5,174.1H228v-3.9
			h0.5V174.1z M228.6,166.2h-0.5v-3.9h0.5V166.2z M228.6,158.4h-0.5v-3.9h0.5V158.4z M228.7,150.5h-0.5v-3.9h0.5V150.5z"/>
	</g>
	<g>
		
			<linearGradient id="SVGID_4_" gradientUnits="userSpaceOnUse" x1="228.6289" y1="167.9969" x2="229.1289" y2="167.9969" gradientTransform="matrix(1 6.159652e-03 6.159652e-03 -1 -2.4898 479.0869)">
			<stop  offset="0" style="stop-color:#AF9772"/>
			<stop  offset="0.1713" style="stop-color:#AF9976"/>
			<stop  offset="0.7537" style="stop-color:#FFE1B7"/>
			<stop  offset="1" style="stop-color:#FFE1B7"/>
		</linearGradient>
		<rect x="227.2" y="311.5" class="st4" width="0.5" height="2"/>
	</g>
</g>
<linearGradient id="SVGID_5_" gradientUnits="userSpaceOnUse" x1="218.918" y1="92.6" x2="236.9736" y2="92.6" gradientTransform="matrix(1 0 0 -1 0 480)">
	<stop  offset="0" style="stop-color:#AF9772"/>
	<stop  offset="0.1713" style="stop-color:#AF9976"/>
	<stop  offset="0.7537" style="stop-color:#FFE1B7"/>
	<stop  offset="1" style="stop-color:#FFE1B7"/>
</linearGradient>
<path class="st5" d="M227.9,396.4c-2-7.4-1.7-7-9-9c7.3-2,7-1.7,9-9c2,7.4,1.7,7,9,9C229.6,389.4,230,389,227.9,396.4z"/>
<linearGradient id="SVGID_6_" gradientUnits="userSpaceOnUse" x1="221.5583" y1="116.7" x2="234.3333" y2="116.7" gradientTransform="matrix(1 0 0 -1 0 480)">
	<stop  offset="0" style="stop-color:#AF9772"/>
	<stop  offset="0.1713" style="stop-color:#AF9976"/>
	<stop  offset="0.7537" style="stop-color:#FFE1B7"/>
	<stop  offset="1" style="stop-color:#FFE1B7"/>
</linearGradient>
<path class="st6" d="M227.9,369.7c-1.4-5.2-1.2-5-6.4-6.4c5.2-1.4,5-1.2,6.4-6.4c1.4,5.2,1.2,5,6.4,6.4
	C229.1,364.7,229.4,364.5,227.9,369.7z"/>
<linearGradient id="SVGID_7_" gradientUnits="userSpaceOnUse" x1="223.225" y1="137.8" x2="232.6667" y2="137.8" gradientTransform="matrix(1 0 0 -1 0 480)">
	<stop  offset="0" style="stop-color:#AF9772"/>
	<stop  offset="0.1713" style="stop-color:#AF9976"/>
	<stop  offset="0.7537" style="stop-color:#FFE1B7"/>
	<stop  offset="1" style="stop-color:#FFE1B7"/>
</linearGradient>
<path class="st7" d="M227.9,346.9c-1.1-3.8-0.9-3.7-4.7-4.7c3.8-1.1,3.7-0.9,4.7-4.7c1,3.8,0.9,3.7,4.7,4.7
	C228.8,343.2,229,343,227.9,346.9z"/>
<linearGradient id="SVGID_8_" gradientUnits="userSpaceOnUse" x1="60.918" y1="643.6387" x2="78.9736" y2="643.6387" gradientTransform="matrix(-1 0 0 1 297.8916 -577.1387)">
	<stop  offset="0" style="stop-color:#AF9772"/>
	<stop  offset="0.1713" style="stop-color:#AF9976"/>
	<stop  offset="0.7537" style="stop-color:#FFE1B7"/>
	<stop  offset="1" style="stop-color:#FFE1B7"/>
</linearGradient>
<path class="st8" d="M227.9,57.5c2,7.4,1.7,7,9,9c-7.3,2-7,1.7-9,9c-2-7.4-1.7-7-9-9C226.3,64.5,225.9,64.8,227.9,57.5z"/>
<linearGradient id="SVGID_9_" gradientUnits="userSpaceOnUse" x1="63.5583" y1="667.7387" x2="76.3333" y2="667.7387" gradientTransform="matrix(-1 0 0 1 297.8916 -577.1387)">
	<stop  offset="0" style="stop-color:#AF9772"/>
	<stop  offset="0.1713" style="stop-color:#AF9976"/>
	<stop  offset="0.7537" style="stop-color:#FFE1B7"/>
	<stop  offset="1" style="stop-color:#FFE1B7"/>
</linearGradient>
<path class="st9" d="M227.9,84.2c1.4,5.2,1.2,5,6.4,6.4c-5.2,1.4-5,1.2-6.4,6.4c-1.4-5.2-1.2-5-6.4-6.4
	C226.8,89.2,226.5,89.4,227.9,84.2z"/>
<linearGradient id="SVGID_10_" gradientUnits="userSpaceOnUse" x1="65.225" y1="688.8387" x2="74.6667" y2="688.8387" gradientTransform="matrix(-1 0 0 1 297.8916 -577.1387)">
	<stop  offset="0" style="stop-color:#AF9772"/>
	<stop  offset="0.1713" style="stop-color:#AF9976"/>
	<stop  offset="0.7537" style="stop-color:#FFE1B7"/>
	<stop  offset="1" style="stop-color:#FFE1B7"/>
</linearGradient>
<path class="st10" d="M227.9,107c1.1,3.8,0.9,3.7,4.7,4.7c-3.8,1.1-3.7,0.9-4.7,4.7c-1-3.8-0.9-3.7-4.7-4.7
	C227.1,110.7,226.9,110.9,227.9,107z"/>
</svg>
