<?xml version="1.0" encoding="utf-8"?>
<!-- Generator: Adobe Illustrator 19.0.0, SVG Export Plug-In . SVG Version: 6.00 Build 0)  -->
<svg version="1.1" id="Ñëîé_1" xmlns="http://www.w3.org/2000/svg" xmlns:xlink="http://www.w3.org/1999/xlink" x="0px" y="0px"
	 viewBox="-95 181.3 420.5 430.7" style="enable-background:new -95 181.3 420.5 430.7;" xml:space="preserve">
<style type="text/css">
	.st0{fill:url(#SVGID_25_);}
	.st1{fill:#B4191E;}
	.st2{fill:#FFFFFF;}
	.st3{clip-path:url(#SVGID_27_);fill:#FFFFFF;}
	.st4{clip-path:url(#SVGID_29_);fill:#FFFFFF;}
	.st5{clip-path:url(#SVGID_31_);fill:#FFFFFF;}
	.st6{clip-path:url(#SVGID_33_);fill:#FFFFFF;}
	.st7{clip-path:url(#SVGID_35_);fill:#FFFFFF;}
	.st8{clip-path:url(#SVGID_37_);fill:#FFFFFF;}
	.st9{clip-path:url(#SVGID_39_);fill:#FFFFFF;}
	.st10{clip-path:url(#SVGID_41_);fill:#FFFFFF;}
	.st11{fill:#141414;}
	.st12{opacity:0.58;}
	.st13{fill:none;stroke:#FFFFFF;stroke-miterlimit:10;}
	.st14{fill:none;stroke:#FFFFFF;stroke-miterlimit:10;stroke-dasharray:3.9239,3.9239;}
</style>
<g>
	
		<image style="overflow:visible;opacity:0.3;" width="440" height="443" xlink:href="9F449C78.png"  transform="matrix(1 0 0 1 -99 176)">
	</image>
	<g>
		<g>
			<g>
				<g>
					<g>
						<defs>
							<path id="SVGID_1_" d="M279.7,374.2c0.3-0.7,0.6-1.5,0.8-2.3c0.3-0.8,0.5-1.6,0.8-2.4l0.1-0.3v0.2c-0.1,0.5-0.1,1.2-0.2,2.1
								c-0.1,0.9-0.1,1.7-0.1,2.6l-0.4,9.4h-4.8L279.7,374.2z M278.4,363.3L263,397.4h7.3l3.4-8.5h7v8.5h6.8v-0.3h0.1v-33.9h-9.2
								V363.3z"/>
						</defs>
						<clipPath id="SVGID_3_">
							<use xlink:href="#SVGID_1_"  style="overflow:visible;"/>
						</clipPath>
					</g>
				</g>
				<g>
					<g>
						<defs>
							<polygon id="SVGID_5_" points="283.7,357.9 280,362.2 283.3,362.2 288.6,357.9 							"/>
						</defs>
						<clipPath id="SVGID_7_">
							<use xlink:href="#SVGID_5_"  style="overflow:visible;"/>
						</clipPath>
					</g>
				</g>
				<g>
					<g>
						<defs>
							<path id="SVGID_9_" d="M150,381h2.2c1.3,0,2.3,0.2,2.8,0.6c0.5,0.4,0.7,1,0.7,2c0,0.7-0.1,1.6-0.3,2.6s-0.5,1.8-0.8,2.5
								c-0.5,0.9-1.1,1.5-1.9,1.9c-0.9,0.3-1.8,0.4-2.7,0.4h-2.1L150,381z M152.9,367.5h2.7c1,0,1.6,0.2,2,0.5
								c0.4,0.3,0.6,0.8,0.6,1.4L158,371c-0.2,1-0.4,1.7-0.5,2c-0.2,0.6-0.5,1.1-0.8,1.4c-0.4,0.4-1,0.7-1.7,0.9
								c-0.7,0.2-1.5,0.3-2.3,0.3h-1.4L152.9,367.5z M147.2,362.1l-7.2,34.1h11.3c2.3,0,4.3-0.5,5.8-1.5s2.9-2.6,4-4.8
								c0.3-0.7,0.6-1.3,0.8-2c0.2-0.7,0.4-1.5,0.5-2.4c0.2-1,0.3-1.6,0.3-1.9s0-0.7,0-1.1c0-1.4-0.3-2.5-0.9-3.3
								c-0.5-0.7-1.2-1.1-2.1-1.4c1.4-0.6,2.5-1.5,3.3-2.8c0.7-1,1.2-2.4,1.6-4.2c0.1-0.4,0.1-0.8,0.2-1.4s0.1-1.1,0.1-1.6
								s-0.1-1.1-0.2-1.7c-0.1-0.6-0.3-1.2-0.6-1.6c-0.6-1.1-1.6-1.8-2.9-2.2c-0.9-0.2-2.2-0.4-3.9-0.4h-10.1V362.1z"/>
						</defs>
						<clipPath id="SVGID_11_">
							<use xlink:href="#SVGID_9_"  style="overflow:visible;"/>
						</clipPath>
					</g>
				</g>
				<g>
					<g>
						<defs>
							<path id="SVGID_13_" d="M172.5,391.6c-0.4-0.6-0.6-1.4-0.6-2.5c0-0.4,0.1-1,0.2-1.7s0.2-1.3,0.3-1.8l2-9.3
								c0.5-2.5,1-4.2,1.5-5.2c1.1-2.1,2.6-3.2,4.6-3.2c1.2,0,2,0.4,2.5,1.2c0.4,0.6,0.6,1.6,0.6,2.7c0,0.4-0.1,1-0.2,1.9
								s-0.3,1.8-0.4,2.7l-1.9,8.6c-0.4,2.2-1,3.9-1.6,5c-1,1.7-2.4,2.6-4.3,2.6C173.9,392.6,173,392.3,172.5,391.6 M173.7,364.5
								c-1.7,1.2-3.1,3-4.2,5.4c-0.7,1.6-1.5,4.2-2.4,7.7l-1,4.8c-0.5,2.5-0.8,4-0.9,4.4c-0.2,1.4-0.4,2.7-0.4,3.9
								c0,2.5,0.7,4.3,2,5.6c1.4,1.4,3.9,2,7.2,2c3.3,0,6-0.7,8-2.1c1.8-1.2,3.2-3.1,4.3-5.6c0.8-1.7,1.5-4.4,2.3-8l1-4.9
								c0.3-1.7,0.5-3.1,0.6-4.2s0.2-2.1,0.2-3.1c0-2.6-0.6-4.5-1.8-5.7c-1.4-1.4-3.8-2.1-7-2.1
								C178.3,362.5,175.7,363.2,173.7,364.5"/>
						</defs>
						<clipPath id="SVGID_15_">
							<use xlink:href="#SVGID_13_"  style="overflow:visible;"/>
						</clipPath>
					</g>
				</g>
				<g>
					<g>
						<defs>
							<path id="SVGID_17_" d="M210.6,363.3l-1.4,6.7c-0.5,2.4-0.8,4.3-1.1,5.7c-0.2,1.4-0.4,2.7-0.6,3.9l-1.1,7
								c-0.1-1.6-0.2-3.2-0.4-4.8c-0.2-1.3-0.6-3.4-1.1-6.1l-2.4-12.4h-6.8l-7.3,34.1h6.8l1.4-6.5c0.4-1.8,0.8-3.8,1.1-5.7
								c0.2-1.3,0.4-2.7,0.6-4.1c0.2-1.5,0.5-3.2,0.8-5.1c0.1-0.6,0.2-1.2,0.2-1.7c0.1,1.6,0.2,3.1,0.5,4.7c0.2,1.1,0.6,3.2,1.2,6.2
								l2.4,12.2h6.9l7.2-34.1L210.6,363.3L210.6,363.3z"/>
						</defs>
						<clipPath id="SVGID_18_">
							<use xlink:href="#SVGID_17_"  style="overflow:visible;"/>
						</clipPath>
					</g>
				</g>
				<g>
					<g>
						<defs>
							<path id="SVGID_19_" d="M224.3,364.5c-1.7,1.2-3.1,3-4.2,5.4c-0.7,1.6-1.5,4.2-2.4,7.7l-1,4.8c-0.6,2.6-0.8,4-0.9,4.4
								c-0.2,1.4-0.4,2.7-0.4,3.9c0,2.5,0.7,4.3,2,5.6c1.4,1.4,3.9,2,7.2,2c1.3,0,2.6-0.4,3.8-1.1c1-0.6,2-1.5,2.8-2.6l-0.6,2.9h5.2
								l4-18.6h-11l-1.1,5.4h4.4c-0.5,2.6-1.3,4.6-2.2,6c-1.1,1.6-2.4,2.4-4.1,2.4c-1.2,0-2-0.3-2.6-1.1c-0.4-0.6-0.6-1.4-0.6-2.5
								c0-0.4,0.1-1,0.2-1.7s0.2-1.3,0.3-1.7l2-9.3c0.5-2.5,1-4.2,1.5-5.2c1.1-2.1,2.6-3.2,4.6-3.2c1.2,0,2.2,0.3,2.7,0.9
								c0.4,0.5,0.7,1.2,0.7,2.2c0,0.2,0,0.7-0.1,1.4c-0.1,0.7-0.2,1.2-0.2,1.5v0.3h6.8l0.4-2.2c0.1-0.6,0.1-1.3,0.1-2.1
								c0-2.8-0.9-4.9-2.6-6c-1.4-1-3.6-1.5-6.6-1.5C228.9,362.5,226.3,363.2,224.3,364.5"/>
						</defs>
						<clipPath id="SVGID_20_">
							<use xlink:href="#SVGID_19_"  style="overflow:visible;"/>
						</clipPath>
					</g>
				</g>
				<g>
					<g>
						<defs>
							<path id="SVGID_21_" d="M252.9,368.7h3.9c1,0,1.8,0.3,2.3,0.9c0.5,0.6,0.7,1.6,0.7,2.8c0,1.6-0.3,4-1,7
								c-1.1,5.2-2.1,8.6-3,10c-1.1,1.7-2.9,2.6-5.5,2.6H248l2-9.5h3.8l1.2-4.7h-4L252.9,368.7z M247.3,363.3l-3.1,14.5h-2.7
								l-1.1,4.7h2.7l-3.1,14.9h12c1.2,0,2.2-0.1,2.9-0.3c0.7-0.2,1.4-0.4,2-0.7c1.9-1,3.5-2.5,4.7-4.4c1-1.6,1.9-3.7,2.7-6.3
								c0.4-1.4,0.9-3.7,1.6-6.7c0.4-1.7,0.6-3.3,0.9-4.7c0.2-1.4,0.3-2.6,0.3-3.6c0-1.5-0.2-2.7-0.6-3.6c-0.6-1.5-1.5-2.5-2.9-3.2
								c-0.9-0.5-1.9-0.7-3-0.7h-13.3V363.3z"/>
						</defs>
						<clipPath id="SVGID_22_">
							<use xlink:href="#SVGID_21_"  style="overflow:visible;"/>
						</clipPath>
					</g>
				</g>
				<g>
					<g>
						<defs>
							<polygon id="SVGID_23_" points="182.9,357 179.3,361.3 182.5,361.3 187.8,357 							"/>
						</defs>
						<clipPath id="SVGID_24_">
							<use xlink:href="#SVGID_23_"  style="overflow:visible;"/>
						</clipPath>
					</g>
				</g>
			</g>
		</g>
		<g>
			
				<linearGradient id="SVGID_25_" gradientUnits="userSpaceOnUse" x1="118.1528" y1="504.3079" x2="118.1528" y2="293.988" gradientTransform="matrix(1 0 0 -1 0 794.6)">
				<stop  offset="0" style="stop-color:#AF9772"/>
				<stop  offset="0.1713" style="stop-color:#AF9976"/>
				<stop  offset="0.7537" style="stop-color:#FFE1B7"/>
				<stop  offset="1" style="stop-color:#FFE1B7"/>
			</linearGradient>
			<path class="st0" d="M321.4,359c-10.2-52.2-39.2-97.1-81.4-129.3c-33.8-25.9-78.7-44.7-121.8-44.7s-88,18.8-121.9,44.7
				c-42.2,32.2-71.2,77.1-81.4,129.3c-9.8,50-4.2,103.7,40.4,135.3c21.3,15.1,49.4,27.8,73.5,38.1c63.5,27.1,74.6,48,89.5,71.2
				c14.7-23.3,26.2-44.2,89.5-71.2c24.1-10.3,52.1-23,73.5-38.1C325.6,462.7,331.2,409,321.4,359z"/>
			<path class="st1" d="M118.2,576.9C88.9,522.6,5.5,515.5-40.2,483.2c-39.5-28-45.6-76.2-36-125C-55,250,45.8,191.4,118.2,191.4
				c72.3,0,173.2,58.6,194.4,166.8c9.6,48.8,3.5,97-36,125C230.8,515.5,147.4,522.6,118.2,576.9z"/>
			<g>
				<g>
					<g>
						<path id="SVGID_104_" class="st2" d="M279.7,374.2c0.3-0.7,0.6-1.5,0.8-2.3c0.3-0.8,0.5-1.6,0.8-2.4l0.1-0.3v0.2
							c-0.1,0.5-0.1,1.2-0.2,2.1c-0.1,0.9-0.1,1.7-0.1,2.6l-0.4,9.4h-4.8L279.7,374.2z M278.4,363.3L263,397.4h7.3l3.4-8.5h7v8.5
							h6.8v-0.3h0.1v-33.9h-9.2V363.3z"/>
					</g>
					<g>
						<defs>
							<path id="SVGID_26_" d="M279.7,374.2c0.3-0.7,0.6-1.5,0.8-2.3c0.3-0.8,0.5-1.6,0.8-2.4l0.1-0.3v0.2c-0.1,0.5-0.1,1.2-0.2,2.1
								c-0.1,0.9-0.1,1.7-0.1,2.6l-0.4,9.4h-4.8L279.7,374.2z M278.4,363.3L263,397.4h7.3l3.4-8.5h7v8.5h6.8v-0.3h0.1v-33.9h-9.2
								V363.3z"/>
						</defs>
						<clipPath id="SVGID_27_">
							<use xlink:href="#SVGID_26_"  style="overflow:visible;"/>
						</clipPath>
						<path class="st3" d="M279.7,374.2c0.3-0.7,0.6-1.5,0.8-2.3c0.3-0.8,0.5-1.6,0.8-2.4l0.1-0.3v0.2c-0.1,0.5-0.1,1.2-0.2,2.1
							c-0.1,0.9-0.1,1.7-0.1,2.6l-0.4,9.4h-4.8 M278.4,363.3L263,397.4h7.3l3.4-8.5h7v8.5h6.8v-0.3h0.1v-33.9h-9.2V363.3z"/>
					</g>
				</g>
				<g>
					<g>
						<polygon id="SVGID_103_" class="st2" points="283.7,357.9 280,362.2 283.3,362.2 288.6,357.9 						"/>
					</g>
					<g>
						<defs>
							<polygon id="SVGID_28_" points="283.7,357.9 280,362.2 283.3,362.2 288.6,357.9 							"/>
						</defs>
						<clipPath id="SVGID_29_">
							<use xlink:href="#SVGID_28_"  style="overflow:visible;"/>
						</clipPath>
						<polygon class="st4" points="283.7,357.9 280,362.2 283.3,362.2 288.6,357.9 						"/>
					</g>
				</g>
				<g>
					<g>
						<path id="SVGID_102_" class="st2" d="M150,381h2.2c1.3,0,2.3,0.2,2.8,0.6c0.5,0.4,0.7,1,0.7,2c0,0.7-0.1,1.6-0.3,2.6
							s-0.5,1.8-0.8,2.5c-0.5,0.9-1.1,1.5-1.9,1.9c-0.9,0.3-1.8,0.4-2.7,0.4h-2.1L150,381z M152.9,367.5h2.7c1,0,1.6,0.2,2,0.5
							c0.4,0.3,0.6,0.8,0.6,1.4L158,371c-0.2,1-0.4,1.7-0.5,2c-0.2,0.6-0.5,1.1-0.8,1.4c-0.4,0.4-1,0.7-1.7,0.9
							c-0.7,0.2-1.5,0.3-2.3,0.3h-1.4L152.9,367.5z M147.2,362.1l-7.2,34.1h11.3c2.3,0,4.3-0.5,5.8-1.5s2.9-2.6,4-4.8
							c0.3-0.7,0.6-1.3,0.8-2c0.2-0.7,0.4-1.5,0.5-2.4c0.2-1,0.3-1.6,0.3-1.9s0-0.7,0-1.1c0-1.4-0.3-2.5-0.9-3.3
							c-0.5-0.7-1.2-1.1-2.1-1.4c1.4-0.6,2.5-1.5,3.3-2.8c0.7-1,1.2-2.4,1.6-4.2c0.1-0.4,0.1-0.8,0.2-1.4s0.1-1.1,0.1-1.6
							s-0.1-1.1-0.2-1.7c-0.1-0.6-0.3-1.2-0.6-1.6c-0.6-1.1-1.6-1.8-2.9-2.2c-0.9-0.2-2.2-0.4-3.9-0.4h-10.1V362.1z"/>
					</g>
					<g>
						<defs>
							<path id="SVGID_30_" d="M150,381h2.2c1.3,0,2.3,0.2,2.8,0.6c0.5,0.4,0.7,1,0.7,2c0,0.7-0.1,1.6-0.3,2.6s-0.5,1.8-0.8,2.5
								c-0.5,0.9-1.1,1.5-1.9,1.9c-0.9,0.3-1.8,0.4-2.7,0.4h-2.1L150,381z M152.9,367.5h2.7c1,0,1.6,0.2,2,0.5
								c0.4,0.3,0.6,0.8,0.6,1.4L158,371c-0.2,1-0.4,1.7-0.5,2c-0.2,0.6-0.5,1.1-0.8,1.4c-0.4,0.4-1,0.7-1.7,0.9
								c-0.7,0.2-1.5,0.3-2.3,0.3h-1.4L152.9,367.5z M147.2,362.1l-7.2,34.1h11.3c2.3,0,4.3-0.5,5.8-1.5s2.9-2.6,4-4.8
								c0.3-0.7,0.6-1.3,0.8-2c0.2-0.7,0.4-1.5,0.5-2.4c0.2-1,0.3-1.6,0.3-1.9s0-0.7,0-1.1c0-1.4-0.3-2.5-0.9-3.3
								c-0.5-0.7-1.2-1.1-2.1-1.4c1.4-0.6,2.5-1.5,3.3-2.8c0.7-1,1.2-2.4,1.6-4.2c0.1-0.4,0.1-0.8,0.2-1.4s0.1-1.1,0.1-1.6
								s-0.1-1.1-0.2-1.7c-0.1-0.6-0.3-1.2-0.6-1.6c-0.6-1.1-1.6-1.8-2.9-2.2c-0.9-0.2-2.2-0.4-3.9-0.4h-10.1V362.1z"/>
						</defs>
						<clipPath id="SVGID_31_">
							<use xlink:href="#SVGID_30_"  style="overflow:visible;"/>
						</clipPath>
						<path class="st5" d="M150,381h2.2c1.3,0,2.3,0.2,2.8,0.6c0.5,0.4,0.7,1,0.7,2c0,0.7-0.1,1.6-0.3,2.6s-0.5,1.8-0.8,2.5
							c-0.5,0.9-1.1,1.5-1.9,1.9c-0.9,0.3-1.8,0.4-2.7,0.4h-2.1 M152.9,367.5h2.7c1,0,1.6,0.2,2,0.5c0.4,0.3,0.6,0.8,0.6,1.4
							L158,371c-0.2,1-0.4,1.7-0.5,2c-0.2,0.6-0.5,1.1-0.8,1.4c-0.4,0.4-1,0.7-1.7,0.9c-0.7,0.2-1.5,0.3-2.3,0.3h-1.4L152.9,367.5z
							 M147.2,362.1l-7.2,34.1h11.3c2.3,0,4.3-0.5,5.8-1.5s2.9-2.6,4-4.8c0.3-0.7,0.6-1.3,0.8-2c0.2-0.7,0.4-1.5,0.5-2.4
							c0.2-1,0.3-1.6,0.3-1.9s0-0.7,0-1.1c0-1.4-0.3-2.5-0.9-3.3c-0.5-0.7-1.2-1.1-2.1-1.4c1.4-0.6,2.5-1.5,3.3-2.8
							c0.7-1,1.2-2.4,1.6-4.2c0.1-0.4,0.1-0.8,0.2-1.4s0.1-1.1,0.1-1.6s-0.1-1.1-0.2-1.7c-0.1-0.6-0.3-1.2-0.6-1.6
							c-0.6-1.1-1.6-1.8-2.9-2.2c-0.9-0.2-2.2-0.4-3.9-0.4h-10.1V362.1z"/>
					</g>
				</g>
				<g>
					<g>
						<path id="SVGID_101_" class="st2" d="M172.5,391.6c-0.4-0.6-0.6-1.4-0.6-2.5c0-0.4,0.1-1,0.2-1.7s0.2-1.3,0.3-1.8l2-9.3
							c0.5-2.5,1-4.2,1.5-5.2c1.1-2.1,2.6-3.2,4.6-3.2c1.2,0,2,0.4,2.5,1.2c0.4,0.6,0.6,1.6,0.6,2.7c0,0.4-0.1,1-0.2,1.9
							s-0.3,1.8-0.4,2.7l-1.9,8.6c-0.4,2.2-1,3.9-1.6,5c-1,1.7-2.4,2.6-4.3,2.6C173.9,392.6,173,392.3,172.5,391.6 M173.7,364.5
							c-1.7,1.2-3.1,3-4.2,5.4c-0.7,1.6-1.5,4.2-2.4,7.7l-1,4.8c-0.5,2.5-0.8,4-0.9,4.4c-0.2,1.4-0.4,2.7-0.4,3.9
							c0,2.5,0.7,4.3,2,5.6c1.4,1.4,3.9,2,7.2,2c3.3,0,6-0.7,8-2.1c1.8-1.2,3.2-3.1,4.3-5.6c0.8-1.7,1.5-4.4,2.3-8l1-4.9
							c0.3-1.7,0.5-3.1,0.6-4.2s0.2-2.1,0.2-3.1c0-2.6-0.6-4.5-1.8-5.7c-1.4-1.4-3.8-2.1-7-2.1C178.3,362.5,175.7,363.2,173.7,364.5
							"/>
					</g>
					<g>
						<defs>
							<path id="SVGID_32_" d="M172.5,391.6c-0.4-0.6-0.6-1.4-0.6-2.5c0-0.4,0.1-1,0.2-1.7s0.2-1.3,0.3-1.8l2-9.3
								c0.5-2.5,1-4.2,1.5-5.2c1.1-2.1,2.6-3.2,4.6-3.2c1.2,0,2,0.4,2.5,1.2c0.4,0.6,0.6,1.6,0.6,2.7c0,0.4-0.1,1-0.2,1.9
								s-0.3,1.8-0.4,2.7l-1.9,8.6c-0.4,2.2-1,3.9-1.6,5c-1,1.7-2.4,2.6-4.3,2.6C173.9,392.6,173,392.3,172.5,391.6 M173.7,364.5
								c-1.7,1.2-3.1,3-4.2,5.4c-0.7,1.6-1.5,4.2-2.4,7.7l-1,4.8c-0.5,2.5-0.8,4-0.9,4.4c-0.2,1.4-0.4,2.7-0.4,3.9
								c0,2.5,0.7,4.3,2,5.6c1.4,1.4,3.9,2,7.2,2c3.3,0,6-0.7,8-2.1c1.8-1.2,3.2-3.1,4.3-5.6c0.8-1.7,1.5-4.4,2.3-8l1-4.9
								c0.3-1.7,0.5-3.1,0.6-4.2s0.2-2.1,0.2-3.1c0-2.6-0.6-4.5-1.8-5.7c-1.4-1.4-3.8-2.1-7-2.1
								C178.3,362.5,175.7,363.2,173.7,364.5"/>
						</defs>
						<clipPath id="SVGID_33_">
							<use xlink:href="#SVGID_32_"  style="overflow:visible;"/>
						</clipPath>
						<path class="st6" d="M172.5,391.6c-0.4-0.6-0.6-1.4-0.6-2.5c0-0.4,0.1-1,0.2-1.7s0.2-1.3,0.3-1.8l2-9.3c0.5-2.5,1-4.2,1.5-5.2
							c1.1-2.1,2.6-3.2,4.6-3.2c1.2,0,2,0.4,2.5,1.2c0.4,0.6,0.6,1.6,0.6,2.7c0,0.4-0.1,1-0.2,1.9s-0.3,1.8-0.4,2.7l-1.9,8.6
							c-0.4,2.2-1,3.9-1.6,5c-1,1.7-2.4,2.6-4.3,2.6C173.9,392.6,173,392.3,172.5,391.6 M173.7,364.5c-1.7,1.2-3.1,3-4.2,5.4
							c-0.7,1.6-1.5,4.2-2.4,7.7l-1,4.8c-0.5,2.5-0.8,4-0.9,4.4c-0.2,1.4-0.4,2.7-0.4,3.9c0,2.5,0.7,4.3,2,5.6c1.4,1.4,3.9,2,7.2,2
							c3.3,0,6-0.7,8-2.1c1.8-1.2,3.2-3.1,4.3-5.6c0.8-1.7,1.5-4.4,2.3-8l1-4.9c0.3-1.7,0.5-3.1,0.6-4.2s0.2-2.1,0.2-3.1
							c0-2.6-0.6-4.5-1.8-5.7c-1.4-1.4-3.8-2.1-7-2.1C178.3,362.5,175.7,363.2,173.7,364.5"/>
					</g>
				</g>
				<g>
					<g>
						<path id="SVGID_100_" class="st2" d="M210.6,363.3l-1.4,6.7c-0.5,2.4-0.8,4.3-1.1,5.7c-0.2,1.4-0.4,2.7-0.6,3.9l-1.1,7
							c-0.1-1.6-0.2-3.2-0.4-4.8c-0.2-1.3-0.6-3.4-1.1-6.1l-2.4-12.4h-6.8l-7.3,34.1h6.8l1.4-6.5c0.4-1.8,0.8-3.8,1.1-5.7
							c0.2-1.3,0.4-2.7,0.6-4.1c0.2-1.5,0.5-3.2,0.8-5.1c0.1-0.6,0.2-1.2,0.2-1.7c0.1,1.6,0.2,3.1,0.5,4.7c0.2,1.1,0.6,3.2,1.2,6.2
							l2.4,12.2h6.9l7.2-34.1L210.6,363.3L210.6,363.3z"/>
					</g>
					<g>
						<defs>
							<path id="SVGID_34_" d="M210.6,363.3l-1.4,6.7c-0.5,2.4-0.8,4.3-1.1,5.7c-0.2,1.4-0.4,2.7-0.6,3.9l-1.1,7
								c-0.1-1.6-0.2-3.2-0.4-4.8c-0.2-1.3-0.6-3.4-1.1-6.1l-2.4-12.4h-6.8l-7.3,34.1h6.8l1.4-6.5c0.4-1.8,0.8-3.8,1.1-5.7
								c0.2-1.3,0.4-2.7,0.6-4.1c0.2-1.5,0.5-3.2,0.8-5.1c0.1-0.6,0.2-1.2,0.2-1.7c0.1,1.6,0.2,3.1,0.5,4.7c0.2,1.1,0.6,3.2,1.2,6.2
								l2.4,12.2h6.9l7.2-34.1L210.6,363.3L210.6,363.3z"/>
						</defs>
						<clipPath id="SVGID_35_">
							<use xlink:href="#SVGID_34_"  style="overflow:visible;"/>
						</clipPath>
						<path class="st7" d="M210.6,363.3l-1.4,6.7c-0.5,2.4-0.8,4.3-1.1,5.7c-0.2,1.4-0.4,2.7-0.6,3.9l-1.1,7
							c-0.1-1.6-0.2-3.2-0.4-4.8c-0.2-1.3-0.6-3.4-1.1-6.1l-2.4-12.4h-6.8l-7.3,34.1h6.8l1.4-6.5c0.4-1.8,0.8-3.8,1.1-5.7
							c0.2-1.3,0.4-2.7,0.6-4.1c0.2-1.5,0.5-3.2,0.8-5.1c0.1-0.6,0.2-1.2,0.2-1.7c0.1,1.6,0.2,3.1,0.5,4.7c0.2,1.1,0.6,3.2,1.2,6.2
							l2.4,12.2h6.9l7.2-34.1"/>
					</g>
				</g>
				<g>
					<g>
						<path id="SVGID_99_" class="st2" d="M224.3,364.5c-1.7,1.2-3.1,3-4.2,5.4c-0.7,1.6-1.5,4.2-2.4,7.7l-1,4.8
							c-0.6,2.6-0.8,4-0.9,4.4c-0.2,1.4-0.4,2.7-0.4,3.9c0,2.5,0.7,4.3,2,5.6c1.4,1.4,3.9,2,7.2,2c1.3,0,2.6-0.4,3.8-1.1
							c1-0.6,2-1.5,2.8-2.6l-0.6,2.9h5.2l4-18.6h-11l-1.1,5.4h4.4c-0.5,2.6-1.3,4.6-2.2,6c-1.1,1.6-2.4,2.4-4.1,2.4
							c-1.2,0-2-0.3-2.6-1.1c-0.4-0.6-0.6-1.4-0.6-2.5c0-0.4,0.1-1,0.2-1.7s0.2-1.3,0.3-1.7l2-9.3c0.5-2.5,1-4.2,1.5-5.2
							c1.1-2.1,2.6-3.2,4.6-3.2c1.2,0,2.2,0.3,2.7,0.9c0.4,0.5,0.7,1.2,0.7,2.2c0,0.2,0,0.7-0.1,1.4c-0.1,0.7-0.2,1.2-0.2,1.5v0.3
							h6.8l0.4-2.2c0.1-0.6,0.1-1.3,0.1-2.1c0-2.8-0.9-4.9-2.6-6c-1.4-1-3.6-1.5-6.6-1.5C228.9,362.5,226.3,363.2,224.3,364.5"/>
					</g>
					<g>
						<defs>
							<path id="SVGID_36_" d="M224.3,364.5c-1.7,1.2-3.1,3-4.2,5.4c-0.7,1.6-1.5,4.2-2.4,7.7l-1,4.8c-0.6,2.6-0.8,4-0.9,4.4
								c-0.2,1.4-0.4,2.7-0.4,3.9c0,2.5,0.7,4.3,2,5.6c1.4,1.4,3.9,2,7.2,2c1.3,0,2.6-0.4,3.8-1.1c1-0.6,2-1.5,2.8-2.6l-0.6,2.9h5.2
								l4-18.6h-11l-1.1,5.4h4.4c-0.5,2.6-1.3,4.6-2.2,6c-1.1,1.6-2.4,2.4-4.1,2.4c-1.2,0-2-0.3-2.6-1.1c-0.4-0.6-0.6-1.4-0.6-2.5
								c0-0.4,0.1-1,0.2-1.7s0.2-1.3,0.3-1.7l2-9.3c0.5-2.5,1-4.2,1.5-5.2c1.1-2.1,2.6-3.2,4.6-3.2c1.2,0,2.2,0.3,2.7,0.9
								c0.4,0.5,0.7,1.2,0.7,2.2c0,0.2,0,0.7-0.1,1.4c-0.1,0.7-0.2,1.2-0.2,1.5v0.3h6.8l0.4-2.2c0.1-0.6,0.1-1.3,0.1-2.1
								c0-2.8-0.9-4.9-2.6-6c-1.4-1-3.6-1.5-6.6-1.5C228.9,362.5,226.3,363.2,224.3,364.5"/>
						</defs>
						<clipPath id="SVGID_37_">
							<use xlink:href="#SVGID_36_"  style="overflow:visible;"/>
						</clipPath>
						<path class="st8" d="M224.3,364.5c-1.7,1.2-3.1,3-4.2,5.4c-0.7,1.6-1.5,4.2-2.4,7.7l-1,4.8c-0.6,2.6-0.8,4-0.9,4.4
							c-0.2,1.4-0.4,2.7-0.4,3.9c0,2.5,0.7,4.3,2,5.6c1.4,1.4,3.9,2,7.2,2c1.3,0,2.6-0.4,3.8-1.1c1-0.6,2-1.5,2.8-2.6l-0.6,2.9h5.2
							l4-18.6h-11l-1.1,5.4h4.4c-0.5,2.6-1.3,4.6-2.2,6c-1.1,1.6-2.4,2.4-4.1,2.4c-1.2,0-2-0.3-2.6-1.1c-0.4-0.6-0.6-1.4-0.6-2.5
							c0-0.4,0.1-1,0.2-1.7s0.2-1.3,0.3-1.7l2-9.3c0.5-2.5,1-4.2,1.5-5.2c1.1-2.1,2.6-3.2,4.6-3.2c1.2,0,2.2,0.3,2.7,0.9
							c0.4,0.5,0.7,1.2,0.7,2.2c0,0.2,0,0.7-0.1,1.4c-0.1,0.7-0.2,1.2-0.2,1.5v0.3h6.8l0.4-2.2c0.1-0.6,0.1-1.3,0.1-2.1
							c0-2.8-0.9-4.9-2.6-6c-1.4-1-3.6-1.5-6.6-1.5C228.9,362.5,226.3,363.2,224.3,364.5"/>
					</g>
				</g>
				<g>
					<g>
						<path id="SVGID_98_" class="st2" d="M252.9,368.7h3.9c1,0,1.8,0.3,2.3,0.9c0.5,0.6,0.7,1.6,0.7,2.8c0,1.6-0.3,4-1,7
							c-1.1,5.2-2.1,8.6-3,10c-1.1,1.7-2.9,2.6-5.5,2.6H248l2-9.5h3.8l1.2-4.7h-4L252.9,368.7z M247.3,363.3l-3.1,14.5h-2.7
							l-1.1,4.7h2.7l-3.1,14.9h12c1.2,0,2.2-0.1,2.9-0.3c0.7-0.2,1.4-0.4,2-0.7c1.9-1,3.5-2.5,4.7-4.4c1-1.6,1.9-3.7,2.7-6.3
							c0.4-1.4,0.9-3.7,1.6-6.7c0.4-1.7,0.6-3.3,0.9-4.7c0.2-1.4,0.3-2.6,0.3-3.6c0-1.5-0.2-2.7-0.6-3.6c-0.6-1.5-1.5-2.5-2.9-3.2
							c-0.9-0.5-1.9-0.7-3-0.7h-13.3V363.3z"/>
					</g>
					<g>
						<defs>
							<path id="SVGID_38_" d="M252.9,368.7h3.9c1,0,1.8,0.3,2.3,0.9c0.5,0.6,0.7,1.6,0.7,2.8c0,1.6-0.3,4-1,7
								c-1.1,5.2-2.1,8.6-3,10c-1.1,1.7-2.9,2.6-5.5,2.6H248l2-9.5h3.8l1.2-4.7h-4L252.9,368.7z M247.3,363.3l-3.1,14.5h-2.7
								l-1.1,4.7h2.7l-3.1,14.9h12c1.2,0,2.2-0.1,2.9-0.3c0.7-0.2,1.4-0.4,2-0.7c1.9-1,3.5-2.5,4.7-4.4c1-1.6,1.9-3.7,2.7-6.3
								c0.4-1.4,0.9-3.7,1.6-6.7c0.4-1.7,0.6-3.3,0.9-4.7c0.2-1.4,0.3-2.6,0.3-3.6c0-1.5-0.2-2.7-0.6-3.6c-0.6-1.5-1.5-2.5-2.9-3.2
								c-0.9-0.5-1.9-0.7-3-0.7h-13.3V363.3z"/>
						</defs>
						<clipPath id="SVGID_39_">
							<use xlink:href="#SVGID_38_"  style="overflow:visible;"/>
						</clipPath>
						<path class="st9" d="M252.9,368.7h3.9c1,0,1.8,0.3,2.3,0.9c0.5,0.6,0.7,1.6,0.7,2.8c0,1.6-0.3,4-1,7c-1.1,5.2-2.1,8.6-3,10
							c-1.1,1.7-2.9,2.6-5.5,2.6H248l2-9.5h3.8l1.2-4.7h-4 M247.3,363.3l-3.1,14.5h-2.7l-1.1,4.7h2.7l-3.1,14.9h12
							c1.2,0,2.2-0.1,2.9-0.3c0.7-0.2,1.4-0.4,2-0.7c1.9-1,3.5-2.5,4.7-4.4c1-1.6,1.9-3.7,2.7-6.3c0.4-1.4,0.9-3.7,1.6-6.7
							c0.4-1.7,0.6-3.3,0.9-4.7c0.2-1.4,0.3-2.6,0.3-3.6c0-1.5-0.2-2.7-0.6-3.6c-0.6-1.5-1.5-2.5-2.9-3.2c-0.9-0.5-1.9-0.7-3-0.7
							h-13.3V363.3z"/>
					</g>
				</g>
				<g>
					<g>
						<polygon id="SVGID_97_" class="st2" points="182.9,357 179.3,361.3 182.5,361.3 187.8,357 						"/>
					</g>
					<g>
						<defs>
							<polygon id="SVGID_40_" points="182.9,357 179.3,361.3 182.5,361.3 187.8,357 							"/>
						</defs>
						<clipPath id="SVGID_41_">
							<use xlink:href="#SVGID_40_"  style="overflow:visible;"/>
						</clipPath>
						<polygon class="st10" points="182.9,357 179.3,361.3 182.5,361.3 187.8,357 						"/>
					</g>
				</g>
				<path class="st2" d="M283.6,399.6h-36c-2.2,0-3.9,1.7-3.9,3.9v5c0,2.2,1.7,3.9,3.9,3.9h36c2.2,0,3.9-1.7,3.9-3.9v-5
					C287.5,401.3,285.7,399.6,283.6,399.6z M249.3,409.1h-1.5v-1.5h1.5V409.1z M254.9,405h-1.4v-0.7c0-0.4-0.2-0.5-0.5-0.5
					c-0.2,0-0.3,0.1-0.4,0.2c-0.1,0.2-0.1,0.5-0.1,1.1v1.5v0.2c0,0.5,0,0.8,0.1,1s0.2,0.3,0.4,0.3c0.2,0,0.3-0.1,0.4-0.3
					c0-0.1,0.1-0.3,0.1-0.6v-0.6h1.4v0.6c0,0.7-0.1,1.2-0.4,1.5c-0.3,0.4-0.8,0.5-1.5,0.5c-0.6,0-1.1-0.2-1.4-0.5
					c-0.4-0.4-0.5-0.9-0.5-1.7v-0.2v-2c0-0.8,0.2-1.4,0.6-1.8c0.3-0.3,0.8-0.5,1.4-0.5c0.7,0,1.2,0.2,1.5,0.6
					c0.3,0.3,0.5,0.7,0.5,1.2v0.7H254.9z M260,408.5c-0.3,0.5-0.9,0.7-1.7,0.7l0,0h-0.1c-0.8,0-1.4-0.2-1.7-0.7
					c-0.3-0.4-0.4-1.1-0.4-2.2v-0.2c0-0.9,0-1.5,0.1-1.9c0.1-0.6,0.3-1,0.6-1.2c0.3-0.3,0.9-0.4,1.5-0.4c0.7,0,1.2,0.1,1.5,0.4
					c0.3,0.2,0.5,0.7,0.6,1.2c0.1,0.4,0.1,1,0.1,1.9C260.3,407.3,260.2,408.1,260,408.5z M268.9,409.1h-1.4v-4.2
					c0-0.3,0-0.6-0.1-0.7c-0.1-0.2-0.3-0.3-0.6-0.3c-0.3,0-0.5,0.1-0.6,0.3c-0.1,0.2-0.1,0.5-0.1,0.9v4.1h-1.4v-4.3
					c0-0.3,0-0.6-0.1-0.7c-0.1-0.2-0.3-0.3-0.6-0.3c-0.3,0-0.5,0.1-0.6,0.3c-0.1,0.2-0.1,0.5-0.1,0.9v4.1h-1.4V403h1.4v0.6
					c0.2-0.3,0.4-0.5,0.7-0.7c0.2-0.1,0.5-0.2,0.7-0.2c0.3,0,0.6,0.1,0.8,0.2c0.3,0.1,0.5,0.4,0.5,0.6c0.1-0.3,0.3-0.5,0.6-0.6
					c0.2-0.1,0.5-0.2,0.9-0.2c0.5,0,0.9,0.1,1.2,0.4c0.2,0.2,0.4,0.5,0.4,0.9v5.1H268.9z M272.3,409.1h-1.5v-1.5h1.5V409.1z
					 M276.9,409.1h-1.8l-1.5-6.2h1.5l0.6,3.5c0.1,0.3,0.1,0.6,0.1,1s0.1,0.7,0.1,0.9c0-0.4,0.1-0.7,0.1-0.8c0-0.4,0.1-0.8,0.2-1
					l0.6-3.5h1.5L276.9,409.1z M283.3,409.1h-1.4V405c0-0.4,0-0.6-0.1-0.7c-0.1-0.2-0.3-0.3-0.5-0.3l0,0c-0.2,0-0.4,0.1-0.5,0.3
					s-0.2,0.4-0.2,0.8v0.1v4h-1.4V403h1.4v0.6c0.1-0.3,0.4-0.5,0.7-0.7c0.2-0.1,0.4-0.1,0.7-0.1c0.4,0,0.8,0.1,1,0.4
					c0.3,0.3,0.4,0.7,0.4,1.1v4.8H283.3z"/>
				<path class="st2" d="M258.2,403.8c-0.3,0-0.5,0.1-0.7,0.4c-0.1,0.2-0.1,0.4-0.1,0.8v2.1c0,0.4,0,0.7,0.1,0.8
					c0.1,0.2,0.3,0.3,0.6,0.3c0.3,0,0.5-0.1,0.6-0.2c0.1-0.2,0.1-0.4,0.1-0.8v-2.1c0-0.4,0-0.7-0.1-0.8
					C258.7,403.9,258.5,403.8,258.2,403.8z"/>
				<path class="st11" d="M281.3,350.1c-0.3-0.3-0.5-0.6-0.8-0.9C280.7,349.5,281,349.8,281.3,350.1"/>
				<path d="M293.3,357.9c-2-1-5.1-2.3-8.2-2.8c-1-1.2-1.9-2.7-3-4.1c1.1,1.4,2,2.9,3,4.1C288.2,355.7,291.3,357,293.3,357.9"/>
				<path d="M289.1,345.6c-1.7-0.9-3.4-1.7-5.3-2.4c-2-0.6-4.3-1.1-6.7-1.4c-1-0.1-2.1-0.2-3.1-0.2c-2.7,0-5.3,0.3-7.8,1
					c-0.6,0.2-1.2,0.3-1.8,0.5c-0.9,0.3-1.8,0.6-2.7,1c-5.5,2.4-10.1,6.3-13.3,11.3c-0.1,0.3-0.2,0.5-0.3,0.5l0,0l4.7-4.4
					c0,0-0.1,0.1-0.1,0.4c-0.3,0.7-0.8,2.3-0.9,3.6c1.8-0.7,8.2-1.5,9.6-1.6c0.9-3.4,6.8-8,6.8-8l-1-1.3l0,0c4.7-1,9.2-0.6,12.4,0.1
					l0,0C279.5,344.8,285,343.7,289.1,345.6"/>
				<path class="st2" d="M303.9,368.8c-0.3-4.1-1.4-7.9-3.2-11.3c-0.4-0.7-0.7-1.3-1.1-1.9c-0.4-0.6-0.8-1.2-1.3-1.8
					c-2.4-3.2-5.4-5.9-8.9-7.9c-0.1-0.1-0.2-0.1-0.3-0.2c-4-1.9-9.6-0.8-9.6-0.8l0,0c0.4,0.1,0.8,0.2,1.2,0.3c0.2,0,0.4,0.1,0.5,0.1
					c0.4,0.1,0.7,0.2,1,0.3s0.6,0.2,0.8,0.3c0.1,0,0.2,0.1,0.3,0.1c1,0.3,1.5,0.6,1.5,0.6l0,0c0,0,0,0-0.1,0s-0.2,0-0.3,0.1
					c-1.1,0.3-3.9,1.1-5.3,1.5c-0.1,0-0.1,0-0.2,0c0.5,0.4,1,0.8,1.4,1.2c0.3,0.3,0.6,0.6,0.8,0.9c0.3,0.3,0.5,0.6,0.8,0.9
					c1.1,1.4,2,2.9,3,4.1c3.1,0.5,6.2,1.8,8.2,2.8c1.4,0.7,2.2,1.2,2.2,1.2s0-2.1,0.1-4.1c0.2,0.2,0.5,0.6,0.8,1.1
					c1.4,1.1,2.5,2.5,3.4,4.1c1.3,1.9,3.1,5.1,3.8,7.9C303.8,368.3,303.9,368.5,303.9,368.8"/>
				<path class="st2" d="M303.9,368.8c-0.1-0.2-0.2-0.5-0.2-0.7c-0.7-2.8-2.6-6-3.8-7.9c-0.9-1.5-2-2.9-3.4-4.1
					c1,1.7,2.4,4.9,2.9,6.7c1.1,3.5,1.5,8.4,1.5,8.4s-2.7-0.4-5.4-1.3l0,0c-0.7,5.1-4.7,10.3-4.7,10.3l4.3,9.3c0,0-0.4,1.3-2.2,3.8
					c1.7-1.5,4.4-4.2,6.6-7.3c1.6-2.5,2.9-5.4,3.6-8.4l0,0c0,0,0,0,0,0.1l0.2-0.5c0.1-0.4,0.3-1,0.4-1.5c0.3-1.4,0.3-2.8,0.3-3.6
					c0-0.5,0-0.9,0-1.4C304,370,304,369.4,303.9,368.8 M303.2,373.8L303.2,373.8L303.2,373.8L303.2,373.8 M300.6,361.5
					c0,0.1,0.1,0.2,0.2,0.2C300.7,361.6,300.6,361.6,300.6,361.5 M302.5,365L302.5,365L302.5,365 M302.3,364.6
					C302.3,364.6,302.2,364.6,302.3,364.6C302.2,364.6,302.3,364.6,302.3,364.6 M302.1,364.2C302,364.1,302,364.1,302.1,364.2
					C302,364.1,302,364.1,302.1,364.2 M301.8,363.8C301.8,363.7,301.8,363.7,301.8,363.8C301.8,363.7,301.8,363.7,301.8,363.8
					 M301.6,363.4c0,0,0-0.1-0.1-0.1C301.6,363.3,301.6,363.3,301.6,363.4 M301.4,363c0,0,0-0.1-0.1-0.1
					C301.4,362.9,301.4,362.9,301.4,363 M301.2,362.6l-0.1-0.1C301.2,362.5,301.2,362.6,301.2,362.6 M301.1,362.3
					c0-0.1-0.1-0.1-0.1-0.1S301,362.2,301.1,362.3 M300.9,362c0-0.1-0.1-0.1-0.1-0.2C300.8,361.9,300.8,361.9,300.9,362
					 M303.2,377.2L303.2,377.2c0-0.1,0-0.2,0-0.3C303.2,377,303.2,377.1,303.2,377.2 M303.3,376.1c0,0.2,0,0.4,0,0.6
					C303.2,376.5,303.2,376.3,303.3,376.1L303.3,376.1z"/>
				<polygon points="146,362.1 145.7,362.1 142.4,362.1 140.9,362.1 133.7,396.2 138.4,396.2 138.4,396.2 138.9,396.2 138.9,396.2 
					138.9,396.2 				"/>
			</g>
			
				<image style="overflow:visible;enable-background:new    ;" width="354" height="391" xlink:href="9F449C79.png"  transform="matrix(0.4363 0 0 0.4363 -55.6778 286.2878)">
			</image>
			<g class="st12">
				<g>
					<line class="st13" x1="112.5" y1="293.8" x2="112.5" y2="295.8"/>
					<line class="st14" x1="112.5" y1="299.8" x2="112.5" y2="470.4"/>
					<line class="st13" x1="112.5" y1="472.4" x2="112.5" y2="474.4"/>
				</g>
			</g>
		</g>
		<g>
			<g>
				<g>
					<g>
						<defs>
							<path id="SVGID_42_" d="M279.7,374.2c0.3-0.7,0.6-1.5,0.8-2.3c0.3-0.8,0.5-1.6,0.8-2.4l0.1-0.3v0.2c-0.1,0.5-0.1,1.2-0.2,2.1
								c-0.1,0.9-0.1,1.7-0.1,2.6l-0.4,9.4h-4.8L279.7,374.2z M278.4,363.3L263,397.4h7.3l3.4-8.5h7v8.5h6.8v-0.3h0.1v-33.9h-9.2
								V363.3z"/>
						</defs>
						<clipPath id="SVGID_43_">
							<use xlink:href="#SVGID_42_"  style="overflow:visible;"/>
						</clipPath>
					</g>
				</g>
				<g>
					<g>
						<defs>
							<polygon id="SVGID_44_" points="283.7,357.9 280,362.2 283.3,362.2 288.6,357.9 							"/>
						</defs>
						<clipPath id="SVGID_45_">
							<use xlink:href="#SVGID_44_"  style="overflow:visible;"/>
						</clipPath>
					</g>
				</g>
				<g>
					<g>
						<defs>
							<path id="SVGID_46_" d="M150,381h2.2c1.3,0,2.3,0.2,2.8,0.6c0.5,0.4,0.7,1,0.7,2c0,0.7-0.1,1.6-0.3,2.6s-0.5,1.8-0.8,2.5
								c-0.5,0.9-1.1,1.5-1.9,1.9c-0.9,0.3-1.8,0.4-2.7,0.4h-2.1L150,381z M152.9,367.5h2.7c1,0,1.6,0.2,2,0.5
								c0.4,0.3,0.6,0.8,0.6,1.4L158,371c-0.2,1-0.4,1.7-0.5,2c-0.2,0.6-0.5,1.1-0.8,1.4c-0.4,0.4-1,0.7-1.7,0.9
								c-0.7,0.2-1.5,0.3-2.3,0.3h-1.4L152.9,367.5z M147.2,362.1l-7.2,34.1h11.3c2.3,0,4.3-0.5,5.8-1.5s2.9-2.6,4-4.8
								c0.3-0.7,0.6-1.3,0.8-2c0.2-0.7,0.4-1.5,0.5-2.4c0.2-1,0.3-1.6,0.3-1.9s0-0.7,0-1.1c0-1.4-0.3-2.5-0.9-3.3
								c-0.5-0.7-1.2-1.1-2.1-1.4c1.4-0.6,2.5-1.5,3.3-2.8c0.7-1,1.2-2.4,1.6-4.2c0.1-0.4,0.1-0.8,0.2-1.4s0.1-1.1,0.1-1.6
								s-0.1-1.1-0.2-1.7c-0.1-0.6-0.3-1.2-0.6-1.6c-0.6-1.1-1.6-1.8-2.9-2.2c-0.9-0.2-2.2-0.4-3.9-0.4h-10.1V362.1z"/>
						</defs>
						<clipPath id="SVGID_47_">
							<use xlink:href="#SVGID_46_"  style="overflow:visible;"/>
						</clipPath>
					</g>
				</g>
				<g>
					<g>
						<defs>
							<path id="SVGID_48_" d="M172.5,391.6c-0.4-0.6-0.6-1.4-0.6-2.5c0-0.4,0.1-1,0.2-1.7s0.2-1.3,0.3-1.8l2-9.3
								c0.5-2.5,1-4.2,1.5-5.2c1.1-2.1,2.6-3.2,4.6-3.2c1.2,0,2,0.4,2.5,1.2c0.4,0.6,0.6,1.6,0.6,2.7c0,0.4-0.1,1-0.2,1.9
								s-0.3,1.8-0.4,2.7l-1.9,8.6c-0.4,2.2-1,3.9-1.6,5c-1,1.7-2.4,2.6-4.3,2.6C173.9,392.6,173,392.3,172.5,391.6 M173.7,364.5
								c-1.7,1.2-3.1,3-4.2,5.4c-0.7,1.6-1.5,4.2-2.4,7.7l-1,4.8c-0.5,2.5-0.8,4-0.9,4.4c-0.2,1.4-0.4,2.7-0.4,3.9
								c0,2.5,0.7,4.3,2,5.6c1.4,1.4,3.9,2,7.2,2c3.3,0,6-0.7,8-2.1c1.8-1.2,3.2-3.1,4.3-5.6c0.8-1.7,1.5-4.4,2.3-8l1-4.9
								c0.3-1.7,0.5-3.1,0.6-4.2s0.2-2.1,0.2-3.1c0-2.6-0.6-4.5-1.8-5.7c-1.4-1.4-3.8-2.1-7-2.1
								C178.3,362.5,175.7,363.2,173.7,364.5"/>
						</defs>
						<clipPath id="SVGID_49_">
							<use xlink:href="#SVGID_48_"  style="overflow:visible;"/>
						</clipPath>
					</g>
				</g>
				<g>
					<g>
						<defs>
							<path id="SVGID_50_" d="M210.6,363.3l-1.4,6.7c-0.5,2.4-0.8,4.3-1.1,5.7c-0.2,1.4-0.4,2.7-0.6,3.9l-1.1,7
								c-0.1-1.6-0.2-3.2-0.4-4.8c-0.2-1.3-0.6-3.4-1.1-6.1l-2.4-12.4h-6.8l-7.3,34.1h6.8l1.4-6.5c0.4-1.8,0.8-3.8,1.1-5.7
								c0.2-1.3,0.4-2.7,0.6-4.1c0.2-1.5,0.5-3.2,0.8-5.1c0.1-0.6,0.2-1.2,0.2-1.7c0.1,1.6,0.2,3.1,0.5,4.7c0.2,1.1,0.6,3.2,1.2,6.2
								l2.4,12.2h6.9l7.2-34.1L210.6,363.3L210.6,363.3z"/>
						</defs>
						<clipPath id="SVGID_51_">
							<use xlink:href="#SVGID_50_"  style="overflow:visible;"/>
						</clipPath>
					</g>
				</g>
				<g>
					<g>
						<defs>
							<path id="SVGID_52_" d="M224.3,364.5c-1.7,1.2-3.1,3-4.2,5.4c-0.7,1.6-1.5,4.2-2.4,7.7l-1,4.8c-0.6,2.6-0.8,4-0.9,4.4
								c-0.2,1.4-0.4,2.7-0.4,3.9c0,2.5,0.7,4.3,2,5.6c1.4,1.4,3.9,2,7.2,2c1.3,0,2.6-0.4,3.8-1.1c1-0.6,2-1.5,2.8-2.6l-0.6,2.9h5.2
								l4-18.6h-11l-1.1,5.4h4.4c-0.5,2.6-1.3,4.6-2.2,6c-1.1,1.6-2.4,2.4-4.1,2.4c-1.2,0-2-0.3-2.6-1.1c-0.4-0.6-0.6-1.4-0.6-2.5
								c0-0.4,0.1-1,0.2-1.7s0.2-1.3,0.3-1.7l2-9.3c0.5-2.5,1-4.2,1.5-5.2c1.1-2.1,2.6-3.2,4.6-3.2c1.2,0,2.2,0.3,2.7,0.9
								c0.4,0.5,0.7,1.2,0.7,2.2c0,0.2,0,0.7-0.1,1.4c-0.1,0.7-0.2,1.2-0.2,1.5v0.3h6.8l0.4-2.2c0.1-0.6,0.1-1.3,0.1-2.1
								c0-2.8-0.9-4.9-2.6-6c-1.4-1-3.6-1.5-6.6-1.5C228.9,362.5,226.3,363.2,224.3,364.5"/>
						</defs>
						<clipPath id="SVGID_53_">
							<use xlink:href="#SVGID_52_"  style="overflow:visible;"/>
						</clipPath>
					</g>
				</g>
				<g>
					<g>
						<defs>
							<path id="SVGID_54_" d="M252.9,368.7h3.9c1,0,1.8,0.3,2.3,0.9c0.5,0.6,0.7,1.6,0.7,2.8c0,1.6-0.3,4-1,7
								c-1.1,5.2-2.1,8.6-3,10c-1.1,1.7-2.9,2.6-5.5,2.6H248l2-9.5h3.8l1.2-4.7h-4L252.9,368.7z M247.3,363.3l-3.1,14.5h-2.7
								l-1.1,4.7h2.7l-3.1,14.9h12c1.2,0,2.2-0.1,2.9-0.3c0.7-0.2,1.4-0.4,2-0.7c1.9-1,3.5-2.5,4.7-4.4c1-1.6,1.9-3.7,2.7-6.3
								c0.4-1.4,0.9-3.7,1.6-6.7c0.4-1.7,0.6-3.3,0.9-4.7c0.2-1.4,0.3-2.6,0.3-3.6c0-1.5-0.2-2.7-0.6-3.6c-0.6-1.5-1.5-2.5-2.9-3.2
								c-0.9-0.5-1.9-0.7-3-0.7h-13.3V363.3z"/>
						</defs>
						<clipPath id="SVGID_55_">
							<use xlink:href="#SVGID_54_"  style="overflow:visible;"/>
						</clipPath>
					</g>
				</g>
				<g>
					<g>
						<defs>
							<polygon id="SVGID_56_" points="182.9,357 179.3,361.3 182.5,361.3 187.8,357 							"/>
						</defs>
						<clipPath id="SVGID_57_">
							<use xlink:href="#SVGID_56_"  style="overflow:visible;"/>
						</clipPath>
					</g>
				</g>
			</g>
		</g>
	</g>
</g>
</svg>
